<?xml version="1.0" encoding="utf-8"?>
<!-- Generator: Adobe Illustrator 15.0.0, SVG Export Plug-In . SVG Version: 6.00 Build 0)  -->
<!DOCTYPE svg PUBLIC "-//W3C//DTD SVG 1.1//EN" "http://www.w3.org/Graphics/SVG/1.1/DTD/svg11.dtd">
<svg version="1.1" id="Capa_1" xmlns="http://www.w3.org/2000/svg" xmlns:xlink="http://www.w3.org/1999/xlink" x="0px" y="0px"
	 width="101.26px" height="37.172px" viewBox="0 0 101.26 37.172" enable-background="new 0 0 101.26 37.172" xml:space="preserve">
<path fill="#457AFA" d="M100.4,0.054H36.045c-0.277,0-0.501,0.225-0.501,0.501V27.6c0,0.276,0.224,0.501,0.501,0.501h9.484
	c0.877,0,0.782,0.626,0.782,0.626v7.387c0,1.189,0.767,1.28,1.456,0.748c0.688-0.532,8.529-7.266,9.375-8.018
	c0.621-0.553,1.021-0.702,1.19-0.743H100.4c0.277,0,0.502-0.225,0.502-0.501V0.555C100.902,0.278,100.678,0.054,100.4,0.054z"/>
<g>
	<path fill="#FFFFFF" d="M44.766,15.167c0-1.344,0.41-2.45,1.229-3.32c0.818-0.871,1.93-1.307,3.334-1.307
		c1.417,0,2.536,0.435,3.357,1.302c0.822,0.868,1.233,1.977,1.233,3.325v0.185c0,1.354-0.409,2.463-1.228,3.325
		c-0.819,0.862-1.934,1.293-3.344,1.293c-1.411,0-2.527-0.433-3.35-1.297c-0.82-0.866-1.232-1.972-1.232-3.321V15.167z
		 M46.627,15.352c0,0.963,0.229,1.758,0.685,2.385s1.136,0.94,2.036,0.94c0.887,0,1.561-0.313,2.021-0.94
		c0.459-0.627,0.689-1.422,0.689-2.385v-0.185c0-0.951-0.232-1.743-0.695-2.377c-0.463-0.632-1.141-0.948-2.035-0.948
		c-0.888,0-1.561,0.316-2.017,0.948c-0.456,0.634-0.685,1.426-0.685,2.377V15.352z"/>
	<path fill="#FFFFFF" d="M56.97,19.793v-7.858h-1.597v-1.227h1.597V9.559c0-0.969,0.284-1.718,0.854-2.246
		c0.57-0.529,1.365-0.794,2.385-0.794c0.215,0,0.43,0.016,0.647,0.047c0.218,0.03,0.458,0.073,0.723,0.13l-0.227,1.259
		c-0.113-0.022-0.251-0.041-0.411-0.059c-0.16-0.017-0.329-0.025-0.506-0.025c-0.541,0-0.943,0.145-1.209,0.433
		C58.963,8.591,58.83,9.01,58.83,9.559v1.149h1.852v1.227H58.83v7.858H56.97z"/>
	<path fill="#FFFFFF" d="M63.336,19.793v-7.858H61.74v-1.227h1.596V9.559c0-0.969,0.285-1.718,0.855-2.246
		c0.569-0.529,1.364-0.794,2.385-0.794c0.214,0,0.43,0.016,0.646,0.047c0.218,0.03,0.459,0.073,0.723,0.13l-0.227,1.259
		c-0.113-0.022-0.25-0.041-0.41-0.059c-0.162-0.017-0.33-0.025-0.506-0.025c-0.541,0-0.945,0.145-1.209,0.433
		c-0.265,0.288-0.396,0.707-0.396,1.256v1.149h1.852v1.227h-1.852v7.858H63.336z"/>
	<path fill="#FFFFFF" d="M72.933,19.97c-1.468,0-2.612-0.417-3.434-1.251s-1.232-1.932-1.232-3.292v-0.369
		c0-1.304,0.423-2.383,1.271-3.236c0.847-0.854,1.881-1.281,3.103-1.281c1.366,0,2.392,0.378,3.075,1.134
		c0.683,0.756,1.024,1.761,1.024,3.014v0.874h-6.536l-0.029,0.042c0,0.912,0.228,1.652,0.681,2.221s1.146,0.853,2.078,0.853
		c0.63,0,1.183-0.08,1.657-0.239c0.477-0.16,0.884-0.38,1.224-0.659l0.728,1.074c-0.365,0.313-0.848,0.578-1.445,0.794
		C74.498,19.861,73.776,19.97,72.933,19.97z M72.64,11.842c-0.648,0-1.186,0.223-1.61,0.668c-0.425,0.444-0.686,1.015-0.779,1.708
		l0.02,0.043h4.609v-0.135c0-0.661-0.184-1.206-0.549-1.637C73.965,12.058,73.401,11.842,72.64,11.842z"/>
	<path fill="#FFFFFF" d="M84.514,12.17l-0.953-0.051c-0.492,0-0.906,0.104-1.242,0.311c-0.338,0.207-0.598,0.498-0.779,0.873v6.49
		h-1.861v-9.085h1.662l0.18,1.327c0.29-0.47,0.646-0.837,1.072-1.101c0.426-0.263,0.915-0.395,1.469-0.395
		c0.139,0,0.271,0.011,0.396,0.029c0.126,0.021,0.23,0.041,0.313,0.063L84.514,12.17z"/>
	<path fill="#FFFFFF" d="M92.392,17.351c0-0.364-0.156-0.661-0.468-0.891s-0.902-0.432-1.771-0.604
		c-1.202-0.229-2.126-0.552-2.771-0.966s-0.969-0.968-0.969-1.662c0-0.738,0.355-1.372,1.063-1.897
		c0.708-0.526,1.626-0.79,2.753-0.79c1.158,0,2.098,0.28,2.814,0.841c0.719,0.559,1.062,1.211,1.029,1.956l-0.018,0.05h-1.776
		c0-0.392-0.193-0.747-0.581-1.066c-0.387-0.319-0.877-0.479-1.469-0.479c-0.654,0-1.145,0.132-1.469,0.395
		c-0.324,0.264-0.486,0.577-0.486,0.941c0,0.357,0.141,0.635,0.42,0.83c0.28,0.196,0.857,0.376,1.733,0.538
		c1.253,0.234,2.204,0.567,2.853,0.999c0.648,0.431,0.973,0.994,0.973,1.688c0,0.807-0.366,1.464-1.1,1.973
		c-0.734,0.51-1.693,0.765-2.877,0.765c-1.303,0-2.33-0.294-3.079-0.882s-1.104-1.273-1.067-2.057l0.02-0.051h1.775
		c0.031,0.588,0.277,1.018,0.736,1.289c0.46,0.271,0.998,0.407,1.615,0.407c0.662,0,1.18-0.125,1.555-0.374
		C92.204,18.054,92.392,17.736,92.392,17.351z"/>
</g>
<g>
	<g>
		<path fill="#6C6C6C" d="M1.861,12.094c0.353-0.436,0.785-0.775,1.299-1.02c0.513-0.244,1.082-0.365,1.705-0.365
			c1.089,0,1.938,0.291,2.545,0.873c0.608,0.582,0.912,1.478,0.912,2.687v5.693H6.461v-5.71c0-0.75-0.181-1.304-0.543-1.662
			c-0.361-0.358-0.902-0.537-1.62-0.537c-0.554,0-1.036,0.096-1.444,0.289c-0.41,0.193-0.74,0.463-0.992,0.811v6.81H0V6.863h1.861
			V12.094z"/>
		<path fill="#6C6C6C" d="M17.276,19.962c-0.063-0.274-0.112-0.517-0.146-0.727s-0.056-0.421-0.062-0.634
			c-0.346,0.437-0.798,0.802-1.355,1.096c-0.557,0.294-1.156,0.44-1.799,0.44c-1.064,0-1.875-0.241-2.433-0.726
			s-0.836-1.152-0.836-2.003c0-0.867,0.396-1.546,1.186-2.036c0.79-0.489,1.862-0.734,3.216-0.734h2.021V13.74
			c0-0.532-0.183-0.953-0.548-1.264s-0.882-0.466-1.549-0.466c-0.604,0-1.093,0.134-1.464,0.402
			c-0.372,0.269-0.557,0.591-0.557,0.966l-1.768,0.017l-0.019-0.05c-0.044-0.661,0.304-1.266,1.044-1.813
			c0.74-0.549,1.695-0.823,2.867-0.823c1.158,0,2.09,0.262,2.795,0.785s1.059,1.277,1.059,2.263v4.374
			c0,0.325,0.019,0.639,0.057,0.94c0.037,0.303,0.106,0.6,0.207,0.891H17.276z M14.188,18.752c0.674,0,1.281-0.153,1.823-0.461
			s0.894-0.661,1.058-1.059v-1.478H14.98c-0.749,0-1.349,0.169-1.799,0.504c-0.45,0.336-0.676,0.73-0.676,1.184
			c0,0.403,0.143,0.723,0.426,0.958C13.215,18.635,13.633,18.752,14.188,18.752z"/>
		<path fill="#6C6C6C" d="M27.572,17.519c0-0.363-0.156-0.661-0.468-0.89c-0.312-0.23-0.901-0.432-1.771-0.604
			c-1.203-0.23-2.127-0.552-2.772-0.967c-0.646-0.413-0.968-0.968-0.968-1.662c0-0.738,0.354-1.371,1.063-1.897
			c0.708-0.526,1.626-0.789,2.753-0.789c1.159,0,2.097,0.28,2.814,0.84s1.062,1.212,1.03,1.956l-0.02,0.05h-1.775
			c0-0.392-0.193-0.747-0.581-1.065c-0.388-0.319-0.877-0.479-1.469-0.479c-0.655,0-1.145,0.131-1.469,0.395
			c-0.325,0.263-0.486,0.576-0.486,0.94c0,0.357,0.14,0.636,0.421,0.831c0.279,0.196,0.857,0.375,1.732,0.537
			c1.253,0.235,2.204,0.568,2.853,0.999c0.648,0.432,0.974,0.994,0.974,1.688c0,0.806-0.367,1.464-1.102,1.973
			c-0.733,0.509-1.691,0.764-2.876,0.764c-1.304,0-2.329-0.294-3.079-0.882c-0.749-0.587-1.105-1.272-1.067-2.057l0.019-0.051h1.776
			c0.031,0.588,0.276,1.018,0.737,1.289c0.459,0.271,0.998,0.407,1.614,0.407c0.661,0,1.179-0.125,1.554-0.373
			C27.385,18.223,27.572,17.904,27.572,17.519z"/>
	</g>
</g>
</svg>
